<svg width="31" height="16" viewBox="0 0 31 16" fill="none" xmlns="http://www.w3.org/2000/svg">
<path d="M30.1475 8.86133C30.538 8.47083 30.538 7.83766 30.1475 7.44711L23.7835 1.08275C23.393 0.692203 22.7598 0.692163 22.3693 1.08266C21.9788 1.47316 21.9788 2.10633 22.3693 2.49688L28.0262 8.15409L22.3693 13.8106C21.9788 14.2011 21.9788 14.8342 22.3693 15.2248C22.7598 15.6153 23.393 15.6154 23.7835 15.2249L30.1475 8.86133ZM0.270874 9.15234L29.4404 9.15417L29.4404 7.15417L0.270874 7.15234L0.270874 9.15234Z" fill="#242424"/>
</svg>
