<svg width="25" height="25" viewBox="0 0 25 25" fill="none" xmlns="http://www.w3.org/2000/svg">
<path d="M12.7656 4.24609C10.6277 4.24609 8.89466 5.87622 8.89466 7.88708C8.89466 9.89794 10.6277 11.5281 12.7656 11.5281C14.9035 11.5281 16.6366 9.89794 16.6366 7.88708C16.6366 5.87622 14.9035 4.24609 12.7656 4.24609Z" fill="#282825"/>
<path d="M8.63659 13.4699C6.49872 13.4699 4.76562 15.1 4.76562 17.1109V18.2646C4.76562 18.996 5.32912 19.6195 6.09649 19.7374C10.5133 20.4157 15.0179 20.4157 19.4348 19.7374C20.2021 19.6195 20.7656 18.996 20.7656 18.2646V17.1109C20.7656 15.1 19.0325 13.4699 16.8947 13.4699H16.5428C16.3523 13.4699 16.1631 13.4982 15.9821 13.5539L15.0886 13.8283C13.5792 14.2919 11.9521 14.2919 10.4426 13.8283L9.54918 13.5539C9.36815 13.4982 9.1789 13.4699 8.98846 13.4699H8.63659Z" fill="#282825"/>
</svg>
